…
flow_data<-read_tsv(url, skip = 35)%>%
  select(2:5)%>%
  rename(site_id = 1, date = 2, flow=3, code = 4)%>%
  mutate(site_id = ifelse(site_id == "09166500", "Dolores", "Bedrock"))%>%
  drop_na()

bedrock_flow<-flow_data%>%
  filter(site_id == "Bedrock"& year(date)>1986)%>%
  select(-code)

bedrock_flow
```

    ## # A tibble: 12,085 x 3
    ##    site_id date        flow
    ##    <chr>   <date>     <dbl>
    ##  1 Bedrock 1987-01-01   120
    ##  2 Bedrock 1987-01-02   130
    ##  3 Bedrock 1987-01-03   120
    ##  4 Bedrock 1987-01-04   120
    ##  5 Bedrock 1987-01-05   140
    ##  6 Bedrock 1987-01-06   140
    ##  7 Bedrock 1987-01-07   130
    ##  8 Bedrock 1987-01-08   130
    ##  9 Bedrock 1987-01-09   110
    ## 10 Bedrock 1987-01-10    95
    ## # … with 12,075 more rows
…
## Snow Depth

### Finding All Snotel Sites in the Dolores Watershed

``` r
library(RNRCS)
meta_data<-grabNRCS.meta(ntwrks = c("SNTL", "SNTLT", "SCAN"))

meta_data_unlist<-meta_data[[1]]%>%
  as_tibble()

meta_data_unlist
```

    ## # A tibble: 876 x 13
    ##    ntwk  wyear state site_name ts    start enddate latitude longitude
    ##    <chr> <fct> <fct> <chr>     <fct> <fct> <fct>   <fct>    <fct>    
    ##  1 SNTL  2019  AK    Frostbit… ""    2019… 2100-J… "  61.7… -149.27  
    ##  2 SNTL  2019  AK    McGrath   ""    2019… 2100-J… "  62.9… -155.61  
    ##  3 SNTL  2019  UT    Parleys … ""    2019… 2100-J… "  40.7… -111.61  
    ##  4 SNTL  2018  AK    East Pal… ""    2018… 2100-J… "  61.6… -149.10  
    ##  5 SNTL  2018  AK    Galena AK ""    2018… 2100-J… "  64.7… -156.71  
    ##  6 SNTL  2018  MT    JL Meadow ""    2017… 2100-J… "  44.7… -113.12  
    ##  7 SNTL  2018  NV    ONeil Cr… ""    2018… 2100-J… "  41.8… -115.08  
    ##  8 SNTL  2017  AK    Flower M… ""    2017… 2100-J… "  59.4… -136.28  
    ##  9 SNTL  2017  CA    Fredonye… ""    2016… 2100-J… "  40.6… -120.61  
    ## 10 SNTL  2017  UT    Bobs Hol… ""    2016… 2100-J… "  38.9… -112.15  
    ## # … with 866 more rows, and 4 more variables: elev_ft <fct>, county <fct>,
    ## #   huc <fct>, site_id <chr>
…
To get data from each site we need to use `grabNRCS.data()` function. `grabNRCS.data` takes: \* network - the network we want to pull from. \* the Site ID which we produced a list of in the last step. \* DayBgn - The first day you want to pull data from. \* DayEnd - the Last date you want data from. Here we use the system data (Today).

We then convert the data to a tibble for better output in Rstudio and add a column with `mutate` with the site\_id number for working with the data later.

### Getting ALL the data with lapply

``` r
all_sntl_data<-lapply(dolores_site_ids, get_snotl_data)%>%
  bind_rows()

all_sntl_data
```

    ## # A tibble: 58,453 x 22
    ##    Date  Air.Temperature… Air.Temperature… Air.Temperature…
    ##    <chr>            <int>            <int>            <int>
    ##  1 2012…               46               52               42
    ##  2 2012…               46               53               42
    ##  3 2012…               52               62               44
    ##  4 2012…               52               61               46
    ##  5 2012…               52               64               46
    ##  6 2012…               54               64               47
    ##  7 2012…               53               64               49
    ##  8 2012…               52               61               47
    ##  9 2012…               54               63               49
    ## 10 2012…               50               61               42
    ## # … with 58,443 more rows, and 18 more variables:
    ## #   Air.Temperature.Observed..degF..Start.of.Day.Values <int>,
    ## #   Precipitation.Accumulation..in..Start.of.Day.Values <dbl>,
    ## #   Snow.Depth..in..Start.of.Day.Values <int>,
    ## #   Snow.Water.Equivalent..in..Start.of.Day.Values <dbl>,
    ## #   Soil.Moisture.Percent..4in..pct..Start.of.Day.Values <dbl>,
    ## #   Soil.Moisture.Percent..8in..pct..Start.of.Day.Values <dbl>,
    ## #   Soil.Moisture.Percent..20in..pct..Start.of.Day.Values <dbl>,
    ## #   Soil.Moisture.Percent..40in..pct..Start.of.Day.Values <dbl>,
…
se_site
```

    ## # A tibble: 168 x 3
    ##     year site_id_num max_se
    ##    <dbl>       <dbl>  <dbl>
    ##  1  1985         586   21.6
    ##  2  1985         589   23.5
    ##  3  1986         465    6.3
    ##  4  1986         586   19.8
    ##  5  1986         589   20.8
    ##  6  1986         739    5.1
    ##  7  1987         465   19.1
    ##  8  1987         586   19.1
    ##  9  1987         589   22  
    ## 10  1987         739   20.1
    ## # … with 158 more rows
…
### Combining a subset of sites

``` r
avg_snwater_eq<-se_site%>%
  filter(year>1986&site_id_num %in% c(465, 586, 589, 739))%>%
  group_by(year)%>%
  summarize(avg_snow_water_e = mean(max_se))%>%
  ungroup()

avg_snwater_eq
```

    ## # A tibble: 34 x 2
    ##     year avg_snow_water_e
    ##    <dbl>            <dbl>
    ##  1  1987            20.1 
    ##  2  1988            11.4 
    ##  3  1989            16.3 
    ##  4  1990             9.28
    ##  5  1991            16.5 
    ##  6  1992            15.5 
    ##  7  1993            25.4 
    ##  8  1994            12.3 
    ##  9  1995            21.8 
    ## 10  1996            13.6 
    ## # … with 24 more rows
…
``` r
bor_data<-grabBOR.data(site_id = "MPHC2000", 
                       timescale = 'daily', 
                       DayBgn = '1985-01-01',
                      DayEnd = Sys.Date())%>%
  as_tibble()%>%
  mutate(date = as.Date(Date),
         res_volume = as.numeric(`Reservoir Storage Volume (ac_ft) Start of Day Values`))%>%
  select(date, res_volume)

bor_data
```

    ## # A tibble: 12,823 x 2
    ##    date       res_volume
    ##    <date>          <dbl>
    ##  1 1985-01-01      44997
    ##  2 1985-01-02      45079
    ##  3 1985-01-03      45161
    ##  4 1985-01-04      45189
    ##  5 1985-01-05      45207
    ##  6 1985-01-06      45262
    ##  7 1985-01-07      45372
    ##  8 1985-01-08      45463
    ##  9 1985-01-09      45601
    ## 10 1985-01-10      45721
    ## # … with 12,813 more rows
…
### Summarize data to yearly

``` r
res_vol<-bor_data%>%
  filter(month(date) %in% c(01, 02))%>%
  group_by(year(date))%>%
  summarize(min_vol = min(res_volume, na.rm = T))%>%
  ungroup()%>%
  rename(year = 1)%>%
  filter(year>1986)

res_vol
```

    ## # A tibble: 34 x 2
    ##     year min_vol
    ##    <dbl>   <dbl>
    ##  1  1987  293309
    ##  2  1988  324234
    ##  3  1989  319239
    ##  4  1990  274597
    ##  5  1991  241536
    ##  6  1992  297471
    ##  7  1993  304632
    ##  8  1994  310609
    ##  9  1995  268308
    ## 10  1996  312568
    ## # … with 24 more rows
…
var_df_train<-var_df%>%
  filter(year!=2020)

var_df_test<-var_df%>%
  filter(year==2020)

var_df_train
```

    ## # A tibble: 33 x 4
    ##     year raftable_releases avg_snow_water_e min_vol
    ##    <dbl>             <dbl>            <dbl>   <dbl>
    ##  1  1987                81            20.1   293309
    ##  2  1988                 8            11.4   324234
    ##  3  1989                 0            16.3   319239
    ##  4  1990                 0             9.28  274597
    ##  5  1991                 0            16.5   241536
    ##  6  1992                37            15.5   297471
    ##  7  1993                88            25.4   304632
    ##  8  1994                26            12.3   310609
    ##  9  1995                79            21.8   268308
    ## 10  1996                 0            13.6   312568
    ## # … with 23 more rows
…
